^C:\USERS\ADRIEN\DOCUMENTS\2D C++ PROJECT\2DPROJECT\2DPROJECT\DEBUG\CLOCK.OBJ|C:\USERS\ADRIEN\DOCUMENTS\2D C++ PROJECT\2DPROJECT\2DPROJECT\DEBUG\GAMEENGINE.OBJ|C:\USERS\ADRIEN\DOCUMENTS\2D C++ PROJECT\2DPROJECT\2DPROJECT\DEBUG\INPUT.OBJ|C:\USERS\ADRIEN\DOCUMENTS\2D C++ PROJECT\2DPROJECT\2DPROJECT\DEBUG\MAIN.OBJ|C:\USERS\ADRIEN\DOCUMENTS\2D C++ PROJECT\2DPROJECT\2DPROJECT\DEBUG\PHYSICENGINE.OBJ|C:\USERS\ADRIEN\DOCUMENTS\2D C++ PROJECT\2DPROJECT\2DPROJECT\DEBUG\RESOURCESMANAGER.OBJ|C:\USERS\ADRIEN\DOCUMENTS\2D C++ PROJECT\2DPROJECT\2DPROJECT\DEBUG\SCENE.OBJ
C:\USERS\ADRIEN\DOCUMENTS\2D C++ PROJECT\2DPROJECT\DEBUG\2DPROJECT.ILK
C:\USERS\ADRIEN\DOCUMENTS\2D C++ PROJECT\2DPROJECT\DEBUG\2DPROJECT.EXE
C:\USERS\ADRIEN\DOCUMENTS\2D C++ PROJECT\2DPROJECT\DEBUG\2DPROJECT.PDB
